<?xml version="1.0" encoding="UTF-8" standalone="no"?>
<!DOCTYPE svg PUBLIC "-//W3C//DTD SVG 1.1//EN" "http://www.w3.org/Graphics/SVG/1.1/DTD/svg11.dtd">
<svg width="100%" height="100%" viewBox="0 0 21 19" version="1.1" xmlns="http://www.w3.org/2000/svg" xmlns:xlink="http://www.w3.org/1999/xlink" xml:space="preserve" xmlns:serif="http://www.serif.com/" style="fill-rule:evenodd;clip-rule:evenodd;stroke-linejoin:round;stroke-miterlimit:1.41421;">
    <g transform="matrix(1,0,0,1,-1779,-1347.58)">
        <g transform="matrix(1,0,0,0.807175,1740,1136)">
            <g transform="matrix(0.0711691,0,0,0.0881706,39,262.123)">
                <path d="M255,143L255,262L162,262L162,159L121,159L121,262L28,262L28,143L15,156L0,141L142,0L283,141L268,156L255,143ZM183,242L235,242L235,122L142,29L49,122L49,242L100,242L100,138L183,138L183,242Z" style="fill:white;fill-opacity:0.5;"/>
            </g>
        </g>
    </g>
</svg>
