<?xml version="1.0" encoding="UTF-8" standalone="no"?>
<!DOCTYPE svg PUBLIC "-//W3C//DTD SVG 1.1//EN" "http://www.w3.org/Graphics/SVG/1.1/DTD/svg11.dtd">
<svg width="100%" height="100%" viewBox="0 0 18 25" version="1.1" xmlns="http://www.w3.org/2000/svg" xmlns:xlink="http://www.w3.org/1999/xlink" xml:space="preserve" xmlns:serif="http://www.serif.com/" style="fill-rule:evenodd;clip-rule:evenodd;stroke-linejoin:round;stroke-miterlimit:1.41421;">
    <g transform="matrix(1,0,0,1,-1779,-341.723)">
        <g transform="matrix(1,0,0,0.807175,1740,79.8001)">
            <g transform="matrix(-0.413192,0,0,0.511899,60.8992,323.47)">
                <path d="M36,2L16,2C13.258,2.003 11.003,4.258 11,7L11,43C11.003,45.742 13.258,47.997 16,48L25,48L25,50.633C25.008,56.866 30.134,61.992 36.367,62L52,62C52.549,62 53,61.549 53,61L53,35.508C52.997,33.011 52.147,30.588 50.59,28.636L41,16.648L41,7C40.997,4.258 38.742,2.003 36,2ZM36,4C37.646,4 39,5.354 39,7L39,33.228L35,28.978L35,4L36,4ZM33,26.853L31.289,25.035C30.917,24.648 30.481,24.328 30,24.09L30,4L33,4L33,26.853ZM13,43L13,7C13,5.354 14.354,4 16,4L28,4L28,23.582L27.991,23.582C26.737,23.541 25.522,24.033 24.651,24.936C22.972,26.633 22.859,29.361 24.391,31.192L28,35.457L28,46L16,46C14.354,46 13,44.646 13,43ZM33.1,46L30,46L30,37.821L33,41.366L33,44.456C33.003,44.972 33.036,45.488 33.1,46ZM49.027,29.886C50.302,31.482 50.998,33.465 51,35.508L51,60L36.367,60C31.231,59.994 27.006,55.769 27,50.633L27,48L33.495,48C34.636,52.103 37.667,55.425 41.648,56.937L42.348,55.063C37.947,53.396 35.014,49.162 35,44.456L35,41C35,40.764 34.917,40.535 34.764,40.354L25.918,29.9C25.048,28.861 25.112,27.313 26.065,26.349C26.562,25.837 27.252,25.558 27.965,25.581C28.675,25.589 29.351,25.887 29.836,26.406L43.275,40.686L44.733,39.314L41,35.353L41,19.853L49.027,29.886Z" style="fill:white;fill-opacity:0.5;fill-rule:nonzero;"/>
            </g>
        </g>
    </g>
</svg>
