<?xml version="1.0" encoding="UTF-8" standalone="no"?>
<!DOCTYPE svg PUBLIC "-//W3C//DTD SVG 1.1//EN" "http://www.w3.org/Graphics/SVG/1.1/DTD/svg11.dtd">
<svg width="100%" height="100%" viewBox="0 0 22 20" version="1.1" xmlns="http://www.w3.org/2000/svg" xmlns:xlink="http://www.w3.org/1999/xlink" xml:space="preserve" xmlns:serif="http://www.serif.com/" style="fill-rule:evenodd;clip-rule:evenodd;stroke-linejoin:round;stroke-miterlimit:1.41421;">
    <g transform="matrix(1,0,0,1,-1779,-415.013)">
        <g transform="matrix(1,0,0,0.807175,1740,97.0477)">
            <g transform="matrix(0.957836,0,0,1.18665,39,-54.5749)">
                <path d="M2,387.953C2,385.281 3.04,382.77 4.929,380.882C6.818,378.993 9.329,377.953 12,377.953C14.671,377.953 17.182,378.993 19.071,380.882C20.96,382.77 22.001,385.282 22.001,387.953C22.001,390.624 20.961,393.135 19.072,395.024C17.123,396.973 14.562,397.948 12.001,397.948C9.44,397.948 6.88,396.974 4.93,395.024C4.539,394.633 4.539,394.001 4.93,393.61C5.321,393.219 5.953,393.219 6.344,393.61C9.463,396.729 14.538,396.729 17.657,393.61C19.168,392.099 20,390.09 20,387.953C20,385.816 19.168,383.807 17.657,382.296C16.146,380.785 14.137,379.953 12,379.953C9.863,379.953 7.854,380.785 6.343,382.296C4.832,383.807 4,385.816 4,387.953L6,387.953L3,391.953L0,387.953L2,387.953ZM11,381.953C10.448,381.953 10,382.4 10,382.953L10,388.953C10,389.506 10.448,389.953 11,389.953L15,389.953C15.552,389.953 16,389.506 16,388.953C16,388.4 15.552,387.953 15,387.953L12,387.953L12,382.953C12,382.4 11.552,381.953 11,381.953Z" style="fill:white;fill-opacity:0.5;fill-rule:nonzero;"/>
            </g>
        </g>
    </g>
</svg>
