<?xml version="1.0" encoding="UTF-8" standalone="no"?>
<!DOCTYPE svg PUBLIC "-//W3C//DTD SVG 1.1//EN" "http://www.w3.org/Graphics/SVG/1.1/DTD/svg11.dtd">
<svg width="100%" height="100%" viewBox="0 0 19 19" version="1.1" xmlns="http://www.w3.org/2000/svg" xmlns:xlink="http://www.w3.org/1999/xlink" xml:space="preserve" xmlns:serif="http://www.serif.com/" style="fill-rule:evenodd;clip-rule:evenodd;stroke-linejoin:round;stroke-miterlimit:1.41421;">
    <g transform="matrix(1,0,0,1,-2767.51,-2371.72)">
        <g transform="matrix(1,0,0,0.807175,1935.17,2164)">
            <g transform="matrix(0.195897,0,0,0.242695,831.689,256.72)">
                <path d="M45.9,84.5C26.7,81.9 13.3,64.2 15.9,45C18.5,25.8 36.3,12.4 55.4,15.1C62,16 67.9,18.7 72.7,22.6L58.9,34.5L96.8,43.7L95,3.7L82.2,14.6C75.4,8.5 66.8,4.3 57.1,3C31.3,-0.6 7.4,17.5 3.8,43.3C0.2,69.1 18.3,93.1 44.2,96.6C62.1,99.1 79,91.2 89,77.5L79.3,70C72,80.4 59.3,86.4 45.9,84.5Z" style="fill:rgb(0,155,223);fill-rule:nonzero;"/>
            </g>
        </g>
    </g>
</svg>
