<?xml version="1.0" encoding="UTF-8" standalone="no"?>
<!DOCTYPE svg PUBLIC "-//W3C//DTD SVG 1.1//EN" "http://www.w3.org/Graphics/SVG/1.1/DTD/svg11.dtd">
<svg width="100%" height="100%" viewBox="0 0 23 23" version="1.1" xmlns="http://www.w3.org/2000/svg" xmlns:xlink="http://www.w3.org/1999/xlink" xml:space="preserve" xmlns:serif="http://www.serif.com/" style="fill-rule:evenodd;clip-rule:evenodd;stroke-linejoin:round;stroke-miterlimit:1.41421;">
    <g transform="matrix(1,0,0,1,-2139.86,-4180)">
        <g transform="matrix(1,0,0,1.03139,1740,3334)">
            <g transform="matrix(1,0,0,0.782609,-273.143,111.384)">
                <g transform="matrix(0.888717,0,0,1.10102,74.8934,-3570.01)">
                    <circle cx="685.94" cy="4078.06" r="12.94" style="fill:rgb(237,28,36);"/>
                </g>
                <g transform="matrix(0.666667,0,0,0.857692,228.667,-2576.36)">
                    <rect x="683" y="4070" width="1.5" height="13" style="fill:white;"/>
                </g>
                <g transform="matrix(4.08216e-17,0.825926,-0.692308,5.25185e-17,3506.69,355.297)">
                    <rect x="683" y="4070" width="1.5" height="13" style="fill:white;"/>
                </g>
            </g>
        </g>
    </g>
</svg>
