<?xml version="1.0" encoding="UTF-8" standalone="no"?>
<!DOCTYPE svg PUBLIC "-//W3C//DTD SVG 1.1//EN" "http://www.w3.org/Graphics/SVG/1.1/DTD/svg11.dtd">
<svg width="100%" height="100%" viewBox="0 0 12 13" version="1.1" xmlns="http://www.w3.org/2000/svg" xmlns:xlink="http://www.w3.org/1999/xlink" xml:space="preserve" xmlns:serif="http://www.serif.com/" style="fill-rule:evenodd;clip-rule:evenodd;stroke-linejoin:round;stroke-miterlimit:1.41421;">
    <g transform="matrix(1,0,0,1,-2350.62,-4068)">
        <g transform="matrix(1,0,0,1.03139,1740,3334)">
            <g transform="matrix(0.225988,0,0,0.21911,400.314,-150.056)">
                <path d="M960.624,3932.8C963.914,3932.81 966.621,3935.51 966.624,3938.8L966.624,3940.8L976.624,3940.8C979.914,3940.81 982.621,3943.51 982.624,3946.8L982.624,3952.8C982.624,3953.9 981.721,3954.8 980.624,3954.8L978.624,3954.8L978.624,3982.8C978.621,3986.09 975.914,3988.8 972.624,3988.8L940.624,3988.8C937.334,3988.8 934.628,3986.09 934.624,3982.8L934.624,3954.8L932.624,3954.8C931.527,3954.8 930.624,3953.9 930.624,3952.8L930.624,3946.8C930.628,3943.51 933.334,3940.81 936.624,3940.8L946.624,3940.8L946.624,3938.8C946.628,3935.51 949.334,3932.81 952.624,3932.8L960.624,3932.8ZM972.624,3984.8C973.721,3984.8 974.623,3983.9 974.624,3982.8L974.624,3954.8L938.624,3954.8L938.624,3982.8C938.625,3983.9 939.527,3984.8 940.624,3984.8L972.624,3984.8ZM946.624,3980.8C947.721,3980.8 948.624,3979.9 948.624,3978.8L948.624,3960.8C948.624,3959.71 947.721,3958.8 946.624,3958.8C945.527,3958.8 944.624,3959.71 944.624,3960.8L944.624,3978.8C944.624,3979.9 945.527,3980.8 946.624,3980.8ZM956.624,3980.8C957.721,3980.8 958.624,3979.9 958.624,3978.8L958.624,3960.8C958.624,3959.71 957.721,3958.8 956.624,3958.8C955.527,3958.8 954.624,3959.71 954.624,3960.8L954.624,3978.8C954.624,3979.9 955.527,3980.8 956.624,3980.8ZM966.624,3980.8C967.721,3980.8 968.624,3979.9 968.624,3978.8L968.624,3960.8C968.624,3959.71 967.721,3958.8 966.624,3958.8C965.527,3958.8 964.624,3959.71 964.624,3960.8L964.624,3978.8C964.624,3979.9 965.527,3980.8 966.624,3980.8ZM978.624,3950.8L978.624,3946.8C978.623,3945.71 977.721,3944.81 976.624,3944.8L936.624,3944.8C935.527,3944.81 934.625,3945.71 934.624,3946.8L934.624,3950.8L978.624,3950.8ZM962.624,3940.8L962.624,3938.8C962.623,3937.71 961.721,3936.81 960.624,3936.8L952.624,3936.8C951.527,3936.81 950.625,3937.71 950.624,3938.8L950.624,3940.8L962.624,3940.8Z" style="fill:rgb(237,28,36);fill-rule:nonzero;"/>
            </g>
        </g>
    </g>
</svg>
