<?xml version="1.0" encoding="UTF-8" standalone="no"?>
<!DOCTYPE svg PUBLIC "-//W3C//DTD SVG 1.1//EN" "http://www.w3.org/Graphics/SVG/1.1/DTD/svg11.dtd">
<svg width="100%" height="100%" viewBox="0 0 90 80" version="1.1" xmlns="http://www.w3.org/2000/svg" xmlns:xlink="http://www.w3.org/1999/xlink" xml:space="preserve" xmlns:serif="http://www.serif.com/" style="fill-rule:evenodd;clip-rule:evenodd;stroke-linejoin:round;stroke-miterlimit:1.41421;">
    <g transform="matrix(1,0,0,1,-1790,-30)">
        <g transform="matrix(1,0,0,0.807175,1740,0)">
            <g transform="matrix(0.7859,0,0,0.973643,-439.524,-217.782)">
                <g transform="matrix(0.640078,0,0,0.640078,415.055,375.244)">
                    <path d="M335.1,-35.135C335.1,-36.015 334.844,-36.659 334.335,-37.074C333.818,-37.491 333.127,-37.698 332.274,-37.698L329.914,-37.698L329.914,-32.476L332.347,-32.476C333.2,-32.476 333.873,-32.693 334.366,-33.132C334.852,-33.571 335.1,-34.235 335.1,-35.135ZM329.914,-20.954C329.914,-20.772 329.877,-20.61 329.8,-20.455C329.719,-20.301 329.532,-20.226 329.229,-20.226L325.419,-20.226C324.933,-20.226 324.692,-20.469 324.692,-20.954L324.692,-41.34C324.692,-41.54 324.742,-41.707 324.838,-41.848C324.938,-41.994 325.131,-42.062 325.419,-42.062L333.036,-42.062C334.063,-42.062 335.022,-41.923 335.927,-41.637C336.82,-41.353 337.609,-40.93 338.288,-40.374C338.962,-39.815 339.497,-39.111 339.883,-38.257C340.266,-37.403 340.448,-36.404 340.448,-35.264C340.448,-34.503 340.354,-33.703 340.143,-32.886C339.933,-32.066 339.554,-31.309 339.007,-30.62C338.46,-29.934 337.704,-29.363 336.744,-28.917C335.779,-28.469 334.543,-28.238 333.036,-28.238L329.914,-28.238L329.914,-20.954Z" style="fill:white;fill-rule:nonzero;"/>
                </g>
                <g transform="matrix(0.640078,0,0,0.640078,415.055,375.244)">
                    <path d="M356.48,-31.064C356.48,-33.406 356.187,-35.119 355.609,-36.204C355.028,-37.285 353.952,-37.83 352.375,-37.83C350.903,-37.83 349.893,-37.279 349.337,-36.174C348.777,-35.064 348.496,-33.362 348.496,-31.064C348.496,-28.853 348.762,-27.196 349.303,-26.093C349.841,-24.985 350.863,-24.433 352.375,-24.433C353.929,-24.433 355.001,-24.971 355.594,-26.058C356.187,-27.138 356.48,-28.81 356.48,-31.064ZM361.832,-31.427C361.832,-30.18 361.735,-28.885 361.555,-27.534C361.366,-26.19 360.942,-24.951 360.291,-23.824C359.628,-22.699 358.671,-21.765 357.411,-21.03C356.153,-20.302 354.452,-19.93 352.303,-19.93C350.882,-19.93 349.66,-20.105 348.648,-20.44C347.628,-20.778 346.774,-21.238 346.084,-21.805C345.394,-22.374 344.844,-23.044 344.446,-23.808C344.031,-24.576 343.73,-25.385 343.507,-26.238C343.284,-27.096 343.143,-27.962 343.084,-28.853C343.014,-29.734 342.981,-30.594 342.981,-31.427C342.981,-32.06 343.02,-32.778 343.096,-33.578C343.175,-34.374 343.321,-35.176 343.552,-35.973C343.784,-36.775 344.113,-37.555 344.523,-38.326C344.937,-39.09 345.496,-39.767 346.188,-40.358C346.876,-40.947 347.721,-41.423 348.726,-41.788C349.733,-42.147 350.937,-42.33 352.338,-42.33C354.396,-42.33 356.042,-42.001 357.285,-41.359C358.515,-40.712 359.475,-39.873 360.153,-38.829C360.83,-37.794 361.284,-36.622 361.504,-35.314C361.72,-34.017 361.832,-32.718 361.832,-31.427Z" style="fill:white;fill-rule:nonzero;"/>
                </g>
                <g transform="matrix(0.640078,0,0,0.640078,415.055,375.244)">
                    <path d="M364.984,-31.034C364.984,-32.367 365.107,-33.703 365.356,-35.051C365.609,-36.401 366.082,-37.608 366.773,-38.681C367.461,-39.754 368.428,-40.621 369.658,-41.292C370.89,-41.956 372.509,-42.301 374.503,-42.301C375.535,-42.301 376.597,-42.217 377.705,-42.046C378.814,-41.885 379.801,-41.614 380.673,-41.24C381.005,-41.09 381.257,-40.921 381.43,-40.737C381.603,-40.547 381.651,-40.25 381.564,-39.831L381.132,-37.931C381.075,-37.617 380.971,-37.424 380.827,-37.339C380.673,-37.252 380.418,-37.228 380.02,-37.272C379.099,-37.378 378.205,-37.468 377.342,-37.539C376.484,-37.6 375.691,-37.63 374.998,-37.63C374.077,-37.63 373.33,-37.465 372.749,-37.123C372.167,-36.782 371.712,-36.322 371.384,-35.728C371.053,-35.135 370.834,-34.445 370.712,-33.658C370.591,-32.872 370.531,-32.03 370.531,-31.129C370.531,-30.1 370.591,-29.178 370.712,-28.355C370.834,-27.534 371.053,-26.838 371.384,-26.268C371.712,-25.7 372.167,-25.271 372.749,-24.972C373.33,-24.679 374.065,-24.529 374.962,-24.529C375.862,-24.529 376.677,-24.563 377.415,-24.631C378.146,-24.695 379.017,-24.785 380.05,-24.891C380.471,-24.932 380.74,-24.917 380.876,-24.84C381.005,-24.77 381.119,-24.563 381.202,-24.235L381.626,-22.496C381.742,-22.078 381.711,-21.765 381.549,-21.561C381.38,-21.35 381.132,-21.169 380.804,-21.016C380.389,-20.84 379.927,-20.681 379.412,-20.546C378.9,-20.4 378.36,-20.279 377.799,-20.179C377.246,-20.084 376.682,-20.014 376.132,-19.969C375.573,-19.921 375.041,-19.9 374.538,-19.9C372.564,-19.9 370.957,-20.222 369.716,-20.871C368.463,-21.515 367.49,-22.364 366.791,-23.414C366.087,-24.469 365.609,-25.66 365.356,-26.987C365.107,-28.328 364.984,-29.675 364.984,-31.034Z" style="fill:white;fill-rule:nonzero;"/>
                </g>
                <g transform="matrix(0.640078,0,0,0.640078,415.055,375.244)">
                    <path d="M397.258,-31.064C397.258,-33.406 396.967,-35.119 396.388,-36.204C395.808,-37.285 394.735,-37.83 393.151,-37.83C391.683,-37.83 390.669,-37.279 390.114,-36.174C389.554,-35.064 389.271,-33.362 389.271,-31.064C389.271,-28.853 389.548,-27.196 390.082,-26.093C390.616,-24.985 391.643,-24.433 393.151,-24.433C394.707,-24.433 395.782,-24.971 396.375,-26.058C396.961,-27.138 397.258,-28.81 397.258,-31.064ZM402.61,-31.427C402.61,-30.18 402.518,-28.885 402.332,-27.534C402.144,-26.19 401.72,-24.951 401.07,-23.824C400.405,-22.699 399.455,-21.765 398.194,-21.03C396.936,-20.302 395.232,-19.93 393.089,-19.93C391.659,-19.93 390.446,-20.105 389.426,-20.44C388.414,-20.778 387.56,-21.238 386.871,-21.805C386.175,-22.374 385.63,-23.044 385.231,-23.808C384.82,-24.576 384.508,-25.385 384.288,-26.238C384.073,-27.096 383.929,-27.962 383.862,-28.853C383.795,-29.734 383.76,-30.594 383.76,-31.427C383.76,-32.06 383.801,-32.778 383.88,-33.578C383.956,-34.374 384.106,-35.176 384.339,-35.973C384.57,-36.775 384.894,-37.555 385.306,-38.326C385.725,-39.09 386.28,-39.767 386.962,-40.358C387.656,-40.947 388.5,-41.423 389.502,-41.788C390.514,-42.147 391.715,-42.33 393.122,-42.33C395.179,-42.33 396.829,-42.001 398.055,-41.359C399.293,-40.712 400.264,-39.873 400.937,-38.829C401.612,-37.794 402.067,-36.622 402.281,-35.314C402.499,-34.017 402.61,-32.718 402.61,-31.427Z" style="fill:white;fill-rule:nonzero;"/>
                </g>
                <g transform="matrix(0.640078,0,0,0.640078,415.055,375.244)">
                    <path d="M416.269,-31.36L422.347,-21.08C422.458,-20.906 422.498,-20.723 422.482,-20.523C422.458,-20.33 422.271,-20.226 421.916,-20.226L417.81,-20.226C417.554,-20.226 417.333,-20.271 417.175,-20.361C417.005,-20.446 416.845,-20.633 416.663,-20.92L415.049,-24.007L413.413,-27.255L411.804,-24.007L410.231,-21.016C410.077,-20.71 409.907,-20.498 409.74,-20.395C409.559,-20.285 409.304,-20.226 408.983,-20.226L404.877,-20.226C404.569,-20.226 404.395,-20.323 404.345,-20.508C404.302,-20.695 404.36,-20.906 404.509,-21.148L410.556,-31.36L404.877,-41.114C404.749,-41.353 404.708,-41.572 404.774,-41.769C404.843,-41.962 405.027,-42.062 405.335,-42.062L409.407,-42.062C409.74,-42.062 409.959,-42.011 410.077,-41.923C410.205,-41.824 410.339,-41.624 410.498,-41.34L412.003,-38.42L413.444,-35.529L414.929,-38.587L416.339,-41.307C416.462,-41.572 416.612,-41.756 416.751,-41.866C416.894,-41.974 417.098,-42.026 417.383,-42.026L421.558,-42.026C421.991,-42.055 422.227,-41.962 422.245,-41.769C422.271,-41.572 422.227,-41.385 422.118,-41.209L416.269,-31.36Z" style="fill:white;fill-rule:nonzero;"/>
                </g>
                <g transform="matrix(0.640078,0,0,0.640078,415.055,375.244)">
                    <path d="M436.698,-35.135C436.698,-36.015 436.432,-36.659 435.917,-37.074C435.405,-37.491 434.716,-37.698 433.866,-37.698L431.496,-37.698L431.496,-32.476L433.934,-32.476C434.786,-32.476 435.456,-32.693 435.946,-33.132C436.446,-33.571 436.698,-34.235 436.698,-35.135ZM431.496,-20.954C431.496,-20.772 431.465,-20.61 431.38,-20.455C431.302,-20.301 431.119,-20.226 430.812,-20.226L427.001,-20.226C426.53,-20.226 426.284,-20.469 426.284,-20.954L426.284,-41.34C426.284,-41.54 426.334,-41.707 426.438,-41.848C426.53,-41.994 426.719,-42.062 427.001,-42.062L434.617,-42.062C435.657,-42.062 436.61,-41.923 437.519,-41.637C438.409,-41.353 439.196,-40.93 439.876,-40.374C440.555,-39.815 441.087,-39.111 441.47,-38.257C441.853,-37.403 442.052,-36.404 442.052,-35.264C442.052,-34.503 441.94,-33.703 441.726,-32.886C441.52,-32.066 441.143,-31.309 440.601,-30.62C440.045,-29.934 439.298,-29.363 438.338,-28.917C437.371,-28.469 436.129,-28.238 434.617,-28.238L431.496,-28.238L431.496,-20.954Z" style="fill:white;fill-rule:nonzero;"/>
                </g>
                <g transform="matrix(0.640078,0,0,0.640078,415.055,375.244)">
                    <path d="M453.216,-32.754L452.157,-36.775L451.989,-36.775L450.917,-32.792L449.926,-29.132L454.188,-29.132L453.216,-32.754ZM447.622,-21.148C447.514,-20.8 447.371,-20.562 447.193,-20.426C447.018,-20.294 446.783,-20.226 446.476,-20.226L442.834,-20.226C442.589,-20.226 442.419,-20.277 442.334,-20.376C442.246,-20.472 442.261,-20.71 442.37,-21.08L448.708,-41.114C448.816,-41.418 448.95,-41.655 449.108,-41.824C449.256,-41.981 449.553,-42.062 449.991,-42.062L454.125,-42.062C454.584,-42.062 454.886,-41.974 455.029,-41.801C455.174,-41.624 455.3,-41.385 455.412,-41.079L462.013,-21.016C462.074,-20.755 462.084,-20.562 462.044,-20.426C462.005,-20.294 461.86,-20.226 461.615,-20.226L457.539,-20.226C457.165,-20.226 456.914,-20.314 456.786,-20.472C456.653,-20.639 456.537,-20.894 456.418,-21.245L455.341,-25.153L448.812,-25.153L447.622,-21.148Z" style="fill:white;fill-rule:nonzero;"/>
                </g>
                <g transform="matrix(0.640078,0,0,0.640078,415.055,375.244)">
                    <path d="M476.162,-41.308C476.162,-41.527 476.217,-41.707 476.324,-41.849C476.431,-41.993 476.616,-42.063 476.885,-42.063L480.688,-42.063C481.001,-42.063 481.194,-41.981 481.267,-41.823C481.341,-41.656 481.382,-41.48 481.382,-41.308L481.382,-20.954C481.382,-20.772 481.341,-20.611 481.267,-20.456C481.194,-20.302 481.001,-20.226 480.688,-20.226L476.885,-20.226C476.4,-20.226 476.162,-20.468 476.162,-20.954L476.162,-29.355L469.759,-29.355L469.759,-20.954C469.759,-20.772 469.719,-20.611 469.641,-20.456C469.568,-20.302 469.371,-20.226 469.064,-20.226L465.264,-20.226C464.778,-20.226 464.532,-20.468 464.532,-20.954L464.532,-41.308C464.532,-41.527 464.595,-41.707 464.701,-41.849C464.815,-41.993 464.993,-42.063 465.264,-42.063L469.064,-42.063C469.371,-42.063 469.568,-41.981 469.641,-41.817C469.719,-41.656 469.759,-41.48 469.759,-41.308L469.759,-33.719L476.162,-33.719L476.162,-41.308Z" style="fill:white;fill-rule:nonzero;"/>
                </g>
                <g transform="matrix(0.640078,0,0,0.640078,415.055,375.244)">
                    <path d="M494.742,-32.754L493.696,-36.775L493.528,-36.775L492.444,-32.792L491.458,-29.132L495.735,-29.132L494.742,-32.754ZM489.163,-21.148C489.051,-20.8 488.912,-20.562 488.739,-20.426C488.559,-20.294 488.315,-20.226 488.018,-20.226L484.365,-20.226C484.126,-20.226 483.957,-20.277 483.871,-20.376C483.783,-20.472 483.798,-20.71 483.906,-21.08L490.248,-41.114C490.353,-41.418 490.491,-41.655 490.636,-41.824C490.792,-41.981 491.09,-42.062 491.528,-42.062L495.657,-42.062C496.128,-42.062 496.417,-41.974 496.568,-41.801C496.7,-41.624 496.838,-41.385 496.942,-41.079L503.542,-21.016C503.612,-20.755 503.624,-20.562 503.577,-20.426C503.536,-20.294 503.392,-20.226 503.153,-20.226L499.075,-20.226C498.708,-20.226 498.451,-20.314 498.324,-20.472C498.186,-20.639 498.074,-20.894 497.967,-21.245L496.884,-25.153L490.348,-25.153L489.163,-21.148Z" style="fill:white;fill-rule:nonzero;"/>
                </g>
                <g transform="matrix(0.640078,0,0,0.640078,415.055,375.244)">
                    <path d="M367.932,-154.809L387.446,-154.809L387.446,-142.028L380.405,-142.028L380.405,-94.984L413.448,-79.559L446.481,-94.984L446.481,-142.028L439.443,-142.028L439.443,-154.809L458.957,-154.809L458.957,-85.048L413.451,-63.812L413.444,-63.812L367.932,-85.048L367.932,-154.809Z" style="fill:white;"/>
                </g>
                <g transform="matrix(0.640078,0,0,0.640078,415.055,375.244)">
                    <path d="M396.322,-103.063L394.727,-103.791L394.727,-177.127L396.322,-176.222L396.322,-103.063Z" style="fill:white;"/>
                </g>
                <g transform="matrix(0.640078,0,0,0.640078,415.055,375.244)">
                    <path d="M407.168,-171.025L407.168,-97.657L394.575,-103.792L394.575,-177.156L394.576,-177.156L407.168,-171.025Z" style="fill:rgb(230,231,232);"/>
                </g>
                <g transform="matrix(0.640078,0,0,0.640078,415.055,375.244)">
                    <path d="M432.369,-177.156L432.369,-103.791L419.766,-97.657L419.766,-171.024L432.369,-177.156Z" style="fill:rgb(237,28,36);"/>
                </g>
                <g transform="matrix(0.640078,0,0,0.640078,415.055,375.244)">
                    <path d="M419.766,-171.025L419.766,-97.657L413.467,-94.588L407.175,-97.657L407.175,-171.025L413.467,-167.94L419.766,-171.025Z" style="fill:rgb(0,155,223);"/>
                </g>
            </g>
        </g>
    </g>
</svg>
