<?xml version="1.0" encoding="utf-8"?>
<!-- Generator: Adobe Illustrator 21.1.0, SVG Export Plug-In . SVG Version: 6.00 Build 0)  -->
<svg version="1.1" id="Слой_1" xmlns:serif="http://www.serif.com/"
	 xmlns="http://www.w3.org/2000/svg" xmlns:xlink="http://www.w3.org/1999/xlink" x="0px" y="0px" viewBox="0 0 1204.5 387.7"
	 style="enable-background:new 0 0 1204.5 387.7;" xml:space="preserve">
<style type="text/css">
	.st0{fill:#FFFFFF;}
	.st1{fill:#E6E7E8;}
	.st2{fill:#ED1C24;}
	.st3{fill:#009BDF;}
</style>
<g transform="matrix(1,0,0,1,-1790,-30)">
	<g transform="matrix(1,0,0,0.807175,1740,0)">
		<g transform="matrix(0.7859,0,0,0.973643,-439.524,-217.782)">
			<g transform="matrix(0.640078,0,0,0.640078,415.055,375.244)">
				<path class="st0" d="M1233.1,214.6c0-7.8-2.3-13.4-6.7-17.1c-4.6-3.7-10.7-5.5-18.2-5.5h-20.8V238h21.5c7.5,0,13.5-1.9,17.8-5.8
					C1230.9,228.4,1233.1,222.5,1233.1,214.6z M1187.4,339.6c0,1.6-0.3,3-1,4.4c-0.7,1.4-2.4,2-5,2h-33.6c-4.3,0-6.4-2.1-6.4-6.4
					V159.8c0-1.8,0.4-3.2,1.3-4.5c0.9-1.3,2.6-1.9,5.1-1.9h67.2c9.1,0,17.5,1.2,25.5,3.7c7.9,2.5,14.8,6.2,20.8,11.1
					c5.9,4.9,10.7,11.1,14.1,18.7c3.4,7.5,5,16.3,5,26.4c0,6.7-0.8,13.8-2.7,21c-1.9,7.2-5.2,13.9-10,20c-4.8,6-11.5,11.1-20,15
					c-8.5,4-19.4,6-32.7,6h-27.5V339.6z"/>
			</g>
			<g transform="matrix(0.640078,0,0,0.640078,415.055,375.244)">
				<path class="st0" d="M1421.7,250.5c0-20.7-2.6-35.8-7.7-45.3c-5.1-9.5-14.6-14.3-28.5-14.3c-13,0-21.9,4.9-26.8,14.6
					c-4.9,9.8-7.4,24.8-7.4,45.1c0,19.5,2.3,34.1,7.1,43.8c4.7,9.8,13.8,14.6,27.1,14.6c13.7,0,23.2-4.7,28.4-14.3
					C1419.1,285.1,1421.7,270.3,1421.7,250.5z M1468.9,247.3c0,11-0.9,22.4-2.4,34.3c-1.7,11.9-5.4,22.8-11.1,32.7
					c-5.8,9.9-14.3,18.2-25.4,24.6c-11.1,6.4-26.1,9.7-45,9.7c-12.5,0-23.3-1.5-32.2-4.5c-9-3-16.5-7-22.6-12
					c-6.1-5-10.9-10.9-14.4-17.7c-3.7-6.8-6.3-13.9-8.3-21.4c-2-7.6-3.2-15.2-3.7-23.1c-0.6-7.8-0.9-15.4-0.9-22.7
					c0-5.6,0.3-11.9,1-19c0.7-7,2-14.1,4-21.1c2-7.1,4.9-14,8.6-20.8c3.7-6.7,8.6-12.7,14.7-17.9c6.1-5.2,13.5-9.4,22.4-12.6
					c8.9-3.2,19.5-4.8,31.9-4.8c18.1,0,32.7,2.9,43.6,8.6c10.8,5.7,19.3,13.1,25.3,22.3c6,9.1,10,19.5,11.9,31
					C1467.9,224.4,1468.9,235.9,1468.9,247.3z"/>
			</g>
			<g transform="matrix(0.640078,0,0,0.640078,415.055,375.244)">
				<path class="st0" d="M1496.7,250.7c0-11.8,1.1-23.5,3.3-35.4c2.2-11.9,6.4-22.5,12.5-32c6.1-9.5,14.6-17.1,25.4-23
					c10.9-5.9,25.1-8.9,42.7-8.9c9.1,0,18.5,0.7,28.2,2.2c9.8,1.4,18.5,3.8,26.2,7.1c2.9,1.3,5.2,2.8,6.7,4.4c1.5,1.7,1.9,4.3,1.2,8
					l-3.8,16.8c-0.5,2.8-1.4,4.5-2.7,5.2c-1.4,0.8-3.6,1-7.1,0.6c-8.1-0.9-16-1.7-23.6-2.4c-7.6-0.5-14.6-0.8-20.7-0.8
					c-8.1,0-14.7,1.5-19.8,4.5c-5.1,3-9.1,7.1-12,12.3c-2.9,5.2-4.9,11.3-5.9,18.3c-1.1,6.9-1.6,14.4-1.6,22.3
					c0,9.1,0.5,17.2,1.6,24.5c1.1,7.2,3,13.4,5.9,18.4c2.9,5,6.9,8.8,12,11.4c5.1,2.6,11.6,3.9,19.5,3.9c7.9,0,15.1-0.3,21.6-0.9
					c6.4-0.6,14.1-1.4,23.2-2.3c3.7-0.4,6.1-0.2,7.3,0.4c1.1,0.6,2.1,2.4,2.9,5.3l3.7,15.3c1,3.7,0.7,6.4-0.7,8.2
					c-1.5,1.9-3.7,3.5-6.6,4.8c-3.7,1.6-7.7,3-12.3,4.1c-4.5,1.3-9.3,2.4-14.2,3.2c-4.9,0.8-9.9,1.5-14.7,1.9
					c-4.9,0.4-9.6,0.6-14.1,0.6c-17.4,0-31.6-2.8-42.5-8.6c-11-5.7-19.6-13.2-25.8-22.4c-6.2-9.3-10.4-19.8-12.7-31.5
					C1497.8,274.6,1496.7,262.7,1496.7,250.7z"/>
			</g>
			<g transform="matrix(0.640078,0,0,0.640078,415.055,375.244)">
				<path class="st0" d="M1781.3,250.5c0-20.7-2.6-35.8-7.7-45.3c-5.1-9.5-14.6-14.3-28.5-14.3c-12.9,0-21.9,4.9-26.8,14.6
					c-4.9,9.8-7.4,24.8-7.4,45.1c0,19.5,2.4,34.1,7.2,43.8c4.7,9.8,13.8,14.6,27.1,14.6c13.7,0,23.2-4.7,28.4-14.3
					C1778.7,285.1,1781.3,270.3,1781.3,250.5z M1828.5,247.3c0,11-0.8,22.4-2.5,34.3c-1.7,11.9-5.4,22.8-11.1,32.7
					c-5.9,9.9-14.2,18.2-25.4,24.6c-11.1,6.4-26.1,9.7-45,9.7c-12.6,0-23.3-1.5-32.3-4.5c-8.9-3-16.5-7-22.5-12
					c-6.1-5-10.9-10.9-14.5-17.7c-3.6-6.8-6.4-13.9-8.3-21.4c-1.9-7.6-3.2-15.2-3.8-23.1c-0.6-7.8-0.9-15.4-0.9-22.7
					c0-5.6,0.4-11.9,1.1-19c0.7-7,2-14.1,4-21.1c2-7.1,4.9-14,8.5-20.8c3.7-6.7,8.6-12.7,14.6-17.9c6.1-5.2,13.6-9.4,22.4-12.6
					c8.9-3.2,19.5-4.8,31.9-4.8c18.1,0,32.7,2.9,43.5,8.6c10.9,5.7,19.5,13.1,25.4,22.3c6,9.1,10,19.5,11.9,31
					C1827.5,224.4,1828.5,235.9,1828.5,247.3z"/>
			</g>
			<g transform="matrix(0.640078,0,0,0.640078,415.055,375.244)">
				<path class="st0" d="M1948.9,247.9l53.6,90.7c1,1.5,1.3,3.1,1.2,4.9c-0.2,1.7-1.9,2.6-5,2.6h-36.2c-2.3,0-4.2-0.4-5.6-1.2
					c-1.5-0.7-2.9-2.4-4.5-4.9l-14.2-27.2l-14.4-28.6l-14.2,28.6l-13.9,26.4c-1.4,2.7-2.9,4.6-4.3,5.5c-1.6,1-3.8,1.5-6.7,1.5h-36.2
					c-2.7,0-4.3-0.9-4.7-2.5c-0.4-1.6,0.1-3.5,1.4-5.6l53.3-90.1l-50.1-86c-1.1-2.1-1.5-4-0.9-5.8c0.6-1.7,2.2-2.6,4.9-2.6h35.9
					c2.9,0,4.9,0.4,5.9,1.2c1.1,0.9,2.3,2.6,3.7,5.1l13.3,25.8l12.7,25.5l13.1-27l12.4-24c1.1-2.3,2.4-4,3.6-4.9
					c1.3-1,3.1-1.4,5.6-1.4h36.8c3.8-0.3,5.9,0.6,6.1,2.3c0.2,1.7-0.2,3.4-1.1,4.9L1948.9,247.9z"/>
			</g>
			<g transform="matrix(0.640078,0,0,0.640078,415.055,375.244)">
				<path class="st0" d="M2129.1,214.6c0-7.8-2.3-13.4-6.9-17.1c-4.5-3.7-10.6-5.5-18.1-5.5h-20.9V238h21.5c7.5,0,13.4-1.9,17.7-5.8
					C2126.9,228.4,2129.1,222.5,2129.1,214.6z M2083.2,339.6c0,1.6-0.3,3-1,4.4c-0.7,1.4-2.3,2-5,2h-33.6c-4.2,0-6.3-2.1-6.3-6.4
					V159.8c0-1.8,0.4-3.2,1.4-4.5c0.8-1.3,2.5-1.9,5-1.9h67.2c9.2,0,17.6,1.2,25.6,3.7c7.8,2.5,14.8,6.2,20.8,11.1
					c6,4.9,10.7,11.1,14.1,18.7c3.4,7.5,5.1,16.3,5.1,26.4c0,6.7-1,13.8-2.9,21c-1.8,7.2-5.1,13.9-9.9,20c-4.9,6-11.5,11.1-20,15
					c-8.5,4-19.5,6-32.8,6h-27.5V339.6z"/>
			</g>
			<g transform="matrix(0.640078,0,0,0.640078,415.055,375.244)">
				<path class="st0" d="M2274.8,235.6l-9.3-35.5h-1.5l-9.5,35.1l-8.7,32.3h37.6L2274.8,235.6z M2225.4,337.9
					c-1,3.1-2.2,5.2-3.8,6.4c-1.5,1.2-3.6,1.8-6.3,1.8h-32.1c-2.2,0-3.7-0.4-4.4-1.3c-0.8-0.8-0.6-2.9,0.3-6.2l55.9-176.7
					c1-2.7,2.1-4.8,3.5-6.3c1.3-1.4,3.9-2.1,7.8-2.1h36.5c4,0,6.7,0.8,8,2.3c1.3,1.6,2.4,3.7,3.4,6.4l58.2,176.9
					c0.5,2.3,0.6,4,0.3,5.2c-0.3,1.2-1.6,1.8-3.8,1.8h-35.9c-3.3,0-5.5-0.8-6.6-2.2c-1.2-1.5-2.2-3.7-3.2-6.8l-9.5-34.5h-57.6
					L2225.4,337.9z"/>
			</g>
			<g transform="matrix(0.640078,0,0,0.640078,415.055,375.244)">
				<path class="st0" d="M2477.1,160.1c0-1.9,0.5-3.5,1.4-4.8c0.9-1.3,2.6-1.9,4.9-1.9h33.5c2.8,0,4.5,0.7,5.1,2.1
					c0.7,1.5,1,3,1,4.5v179.5c0,1.6-0.4,3-1,4.4c-0.6,1.4-2.3,2-5.1,2h-33.5c-4.3,0-6.4-2.1-6.4-6.4v-74.1h-56.5v74.1
					c0,1.6-0.4,3-1,4.4c-0.6,1.4-2.4,2-5.1,2H2381c-4.3,0-6.5-2.1-6.5-6.4V160.1c0-1.9,0.6-3.5,1.5-4.8c1-1.3,2.6-1.9,5-1.9h33.5
					c2.7,0,4.4,0.7,5.1,2.2c0.7,1.4,1,3,1,4.5v66.9h56.5V160.1z"/>
			</g>
			<g transform="matrix(0.640078,0,0,0.640078,415.055,375.244)">
				<path class="st0" d="M2641,235.6l-9.2-35.5h-1.5l-9.6,35.1l-8.7,32.3h37.7L2641,235.6z M2591.8,337.9c-1,3.1-2.2,5.2-3.7,6.4
					c-1.6,1.2-3.7,1.8-6.4,1.8h-32.2c-2.1,0-3.6-0.4-4.4-1.3c-0.8-0.8-0.6-2.9,0.3-6.2l55.9-176.7c0.9-2.7,2.1-4.8,3.4-6.3
					c1.4-1.4,4-2.1,7.9-2.1h36.4c4.2,0,6.7,0.8,8,2.3c1.2,1.6,2.4,3.7,3.3,6.4l58.2,176.9c0.6,2.3,0.7,4,0.3,5.2
					c-0.4,1.2-1.6,1.8-3.7,1.8h-36c-3.2,0-5.5-0.8-6.6-2.2c-1.2-1.5-2.2-3.7-3.1-6.8l-9.6-34.5h-57.6L2591.8,337.9z"/>
			</g>
			<g transform="matrix(0.640078,0,0,0.640078,415.055,375.244)">
				<path class="st0" d="M324.7-25.2h132.7v86.9h-47.9v319.9l224.7,104.9l224.6-104.9V61.7H811v-86.9h132.7v474.4L634.2,593.6h0
					L324.7,449.2V-25.2z"/>
			</g>
			<g transform="matrix(0.640078,0,0,0.640078,415.055,375.244)">
				<path class="st0" d="M517.7,326.7l-10.8-5V-177l10.8,6.2V326.7z"/>
			</g>
			<g transform="matrix(0.640078,0,0,0.640078,415.055,375.244)">
				<path class="st1" d="M591.5-135.5v498.9l-85.6-41.7v-498.9h0L591.5-135.5z"/>
			</g>
			<g transform="matrix(0.640078,0,0,0.640078,415.055,375.244)">
				<path class="st2" d="M762.9-177.2v498.9l-85.7,41.7v-498.9L762.9-177.2z"/>
			</g>
			<g transform="matrix(0.640078,0,0,0.640078,415.055,375.244)">
				<path class="st3" d="M677.2-135.5v498.9l-42.8,20.9l-42.8-20.9v-498.9l42.8,21L677.2-135.5z"/>
			</g>
		</g>
	</g>
</g>
</svg>
